"KOS Past Line ---"
{
	"textscreen_font5"		"1.00"
	"textscreen_r1"		"255"
	"textscreen_g1"		"0"
	"textscreen_font4"		"1.00"
	"textscreen_r3"		"225"
	"textscreen_g3"		"255"
	"textscreen_size2"		"100"
	"textscreen_r5"		"255.00"
	"textscreen_g5"		"255.00"
	"textscreen_rainbow2"		"1"
	"textscreen_r2"		"255"
	"textscreen_rainbow3"		"0"
	"textscreen_b1"		"0"
	"textscreen_font3"		"1.00"
	"textscreen_a1"		"255"
	"textscreen_b3"		"0"
	"textscreen_rainbow4"		"0"
	"textscreen_font2"		"1.00"
	"textscreen_a5"		"255.00"
	"textscreen_rainbow5"		"0"
	"textscreen_b2"		"0"
	"textscreen_a2"		"255"
	"textscreen_r4"		"255.00"
	"textscreen_g4"		"255.00"
	"textscreen_size5"		"20.00"
	"textscreen_size4"		"20.00"
	"textscreen_size1"		"100"
	"textscreen_g2"		"0"
	"textscreen_text1"		"KOS"
	"textscreen_size3"		"100"
	"textscreen_b4"		"255.00"
	"textscreen_text3"		"---------------------------------------------------------"
	"textscreen_a3"		"255"
	"textscreen_a4"		"255.00"
	"textscreen_b5"		"255.00"
	"textscreen_rainbow1"		"0"
	"textscreen_font1"		"1.00"
	"textscreen_text2"		"Past Line"
}
