https://videos-fms.jwpsrv.com/63288e47_0x7ad15d689c0c221e427ed13184c335390984e539/content/conversions/bxiif4yb/videos/aVbsQydI-33934865.mp4
https://videos-fms.jwpsrv.com/63288e47_0xb59646b2cd7cab075ef01ad55a60e3df7e20113f/content/conversions/bxiif4yb/videos/VXxERwYk-33934865.mp4
https://videos-fms.jwpsrv.com/63288e47_0x369e1b22f6340969239e151da36dfa418a1ab0a9/content/conversions/bxiif4yb/videos/y0EpI4i1-33934865.mp4
https://videos-fms.jwpsrv.com/63288e47_0xa4bee9257b242e2680be9e5d9e797a3424455ee3/content/conversions/bxiif4yb/videos/1DbAt7wc-33934865.mp4
https://videos-fms.jwpsrv.com/63288e47_0x6505d23b6a45a6ab3b71be1a7431f3097307f6a1/content/conversions/bxiif4yb/videos/hAIZgA9Q-33934865.mp4
https://videos-fms.jwpsrv.com/63288e47_0xddbf644cbf1555d98d95673ee60ca2c135a75da6/content/conversions/bxiif4yb/videos/SzeE3gJD-33934865.mp4
https://videos-fms.jwpsrv.com/63288e47_0x0dc30c4bb79c0f89df5f1eb3498861ed08d809bd/content/conversions/bxiif4yb/videos/BoT3e5bp-33934865.mp4
https://videos-fms.jwpsrv.com/63288e47_0x177fa4db2dd28024f9e47763045ffbb7a45d2d5d/content/conversions/bxiif4yb/videos/98EuTB8A-33934865.mp4
https://videos-fms.jwpsrv.com/63288e4a_0x81cbd343c5dfacf2feccb232b5bcb6b3377c7ded/content/conversions/bxiif4yb/videos/raUEJzfP-33934871.mp4

youtube-dl -a ~/Documents/VisualStudioCode\ Repos/Gitlab/Website-MH-01/private/2\ Minute\ Ab\ Bonus.txt
