https://videos-fms.jwpsrv.com/632889e0_0xd6ae7f8ffcd8704e8162d63d353ba58282d754a1/content/conversions/bxiif4yb/videos/PgL2QaQO-33934865.mp4
https://videos-fms.jwpsrv.com/632889dc_0x821c5c51e75ab471dfa78eaf72e8843725b8c352/content/conversions/bxiif4yb/videos/2DDvJAzx-33934870.mp4
https://videos-fms.jwpsrv.com/632889e3_0x900cf484c178c6c592fb375b7d08e0ea1ff380cc/content/conversions/bxiif4yb/videos/Qb2p7iPd-33934866.mp4
https://videos-fms.jwpsrv.com/632889e2_0x69b177e9e5940ea6802561ea9f65bd9eb46540ae/content/conversions/bxiif4yb/videos/i2U9XXJH-33934865.mp4
https://videos-fms.jwpsrv.com/632889de_0x30d5986f11c43b40adeb401b68b4d41afa865597/content/conversions/bxiif4yb/videos/afOgqKts-33934865.mp4
https://videos-fms.jwpsrv.com/632889de_0x3be05d21cfe0ed2e3bd0e03438dfd13878a8c447/content/conversions/bxiif4yb/videos/2ywvR4LZ-33934866.mp4
https://videos-fms.jwpsrv.com/632889de_0xe1383b1e80b332992f21c7727f3264c95c562091/content/conversions/bxiif4yb/videos/cRuxHT97-33934865.mp4
https://videos-fms.jwpsrv.com/632889e2_0x4aa17a9a5c3400b242b4238e3c7e4b370463f96d/content/conversions/bxiif4yb/videos/uz7W8bVf-33934865.mp4
https://videos-fms.jwpsrv.com/632889e4_0xcbb7c2577f49113ad28e27e5f04b5ee8fd562caa/content/conversions/bxiif4yb/videos/jtJiOkDL-33934865.mp4
https://videos-fms.jwpsrv.com/632889e2_0x69a0be095ea9fa2452b687e0ffd559870d943cbd/content/conversions/bxiif4yb/videos/GM2bhseq-33934865.mp4
https://videos-fms.jwpsrv.com/632889e3_0xec9d31375ba638057a07151ca2e4a15c6fa33408/content/conversions/bxiif4yb/videos/gKCQGrSJ-33934865.mp4
https://videos-fms.jwpsrv.com/632889e2_0x0d716b51dd64990cd36cbd33134bdfaac6e4d832/content/conversions/bxiif4yb/videos/uFKqEGdv-33934865.mp4
https://videos-fms.jwpsrv.com/632889de_0xf31c40cc6caff0e75102187c7d1795986d659441/content/conversions/bxiif4yb/videos/uU8H6TiX-33934865.mp4
https://videos-fms.jwpsrv.com/632889e2_0x87cd3de3662481be93827cb54d920b7af5546884/content/conversions/bxiif4yb/videos/NDpUvK6n-33934865.mp4
https://videos-fms.jwpsrv.com/632889de_0x77c3f00fa4514f48def62620a006ee05a50daddd/content/conversions/bxiif4yb/videos/MWugn1Qz-33934865.mp4
https://videos-fms.jwpsrv.com/632889de_0x0defa629b794c9bc726e0099d71f56171e49169f/content/conversions/bxiif4yb/videos/gpYIFAxQ-33934865.mp4
https://videos-fms.jwpsrv.com/632889e2_0x197f953c76e5f0e8b4263511cb20ad8f280d09cf/content/conversions/bxiif4yb/videos/foyqJ5P7-33934865.mp4
https://videos-fms.jwpsrv.com/632889e2_0x0e60af44545d2601de1fc108ea78b71dc03c6140/content/conversions/bxiif4yb/videos/utPcLQQy-33934865.mp4
https://videos-fms.jwpsrv.com/632889e2_0x4a385600e0f2eaf171e0419b7347c9518bbd3f3b/content/conversions/bxiif4yb/videos/IELSFcz3-33934865.mp4
https://videos-fms.jwpsrv.com/632889e3_0x716f157144e53d732c26619a285971efe93a6511/content/conversions/bxiif4yb/videos/LcPPdk2V-33934865.mp4
https://videos-fms.jwpsrv.com/632889e3_0xb9f25ebb32e93dc374c53e4f030a6ef68e2d5cff/content/conversions/bxiif4yb/videos/ispcxE2U-33934865.mp4
https://videos-fms.jwpsrv.com/632889e4_0xe8445dcec627c37ffef768c74dfc8eaa449d76fa/content/conversions/bxiif4yb/videos/A4IsaWfp-33934865.mp4
https://videos-fms.jwpsrv.com/632889e3_0xa631791f6fbadfa8b718b0f3c76aa0d59f6caf51/content/conversions/bxiif4yb/videos/Hh46reY7-33934865.mp4
https://videos-fms.jwpsrv.com/632889e2_0x6fa8fce556d6431486437d36b9e08d0d69b14e3f/content/conversions/bxiif4yb/videos/oAjNGLl6-33934865.mp4
https://videos-fms.jwpsrv.com/632889e2_0xa5abd7644760be58d6f4637071b25ea4d100fc35/content/conversions/bxiif4yb/videos/tzMLixnJ-33934865.mp4
https://videos-fms.jwpsrv.com/632889e2_0x4c1462cc8a5af24a4899d10c0c54514a64628c7f/content/conversions/bxiif4yb/videos/MDkeAqV7-33934865.mp4
https://videos-fms.jwpsrv.com/632889de_0x4cfe7cf73a2f32d0b32b2f10b34d009b4bf47085/content/conversions/bxiif4yb/videos/ySYVqQFC-33934865.mp4
https://videos-fms.jwpsrv.com/632889e3_0xf52afb9802e59f4c2d11b090fc06f3b507d7ea82/content/conversions/bxiif4yb/videos/2TkFBXGT-33934865.mp4
https://videos-fms.jwpsrv.com/632889de_0xaf6f0d297551a501b52fc41493d234c52a245a86/content/conversions/bxiif4yb/videos/OOwY3jSB-33934865.mp4
https://videos-fms.jwpsrv.com/632889e1_0xf3fa4c1a4a24edd5861ab3a2523bd00bd3a272bd/content/conversions/bxiif4yb/videos/QVj9tLVs-33934865.mp4
https://videos-fms.jwpsrv.com/632889e0_0x9bc2acf8f4c6d0c9a226448b651d0b6bad4b86f2/content/conversions/bxiif4yb/videos/as4J1ML6-33934865.mp4
https://videos-fms.jwpsrv.com/632889e2_0x49d836dc0bfd4fefcb93aa8f5f44144b39180935/content/conversions/bxiif4yb/videos/BKqFi8u9-33934865.mp4
https://videos-fms.jwpsrv.com/632889e1_0x92da875b2fb8926935e312bf691d21909df254b2/content/conversions/bxiif4yb/videos/FdrqwVkn-33934865.mp4
https://videos-fms.jwpsrv.com/632889e2_0x62a1bd10a366953b7b8d410143631792ba7ac2a8/content/conversions/bxiif4yb/videos/gfdTOD8n-33934865.mp4
https://videos-fms.jwpsrv.com/632889e2_0x11818a8c7375c1ba7d07f62e8ef6ee0363ac61b7/content/conversions/bxiif4yb/videos/yAnG6FA2-33934865.mp4
https://videos-fms.jwpsrv.com/632889e2_0xceed367f978d4dcca4917c0d3879dc2f71508e54/content/conversions/bxiif4yb/videos/XLDBZHpQ-33934865.mp4
https://videos-fms.jwpsrv.com/632889e0_0x152090f6e245375dc09019191d3b27d47cf9fcde/content/conversions/bxiif4yb/videos/vBjNFn8F-33934865.mp4
https://videos-fms.jwpsrv.com/632889e3_0x3c37c7f358be0423656e29c7b48d9a4f3b554ee4/content/conversions/bxiif4yb/videos/AtaKz1nr-33934865.mp4
https://videos-fms.jwpsrv.com/632889e2_0x5eba6434a73d01d2d12b0dbefd28d36d1757f4fe/content/conversions/bxiif4yb/videos/hXzazNEG-33934865.mp4
https://videos-fms.jwpsrv.com/632889e1_0xfae60a3afa7272e3e168ca88e964a77507e25557/content/conversions/bxiif4yb/videos/AUklqPCB-33934865.mp4
https://videos-fms.jwpsrv.com/632889e2_0x075f5c0bce47fbe7f0d710d6575261b5d7a4a873/content/conversions/bxiif4yb/videos/FxF2q5P7-33934865.mp4
https://videos-fms.jwpsrv.com/632889e3_0x6398fd1abf272e5b3bfc136b6ba58bc5bff65b94/content/conversions/bxiif4yb/videos/xAN7uB7H-33934865.mp4
https://videos-fms.jwpsrv.com/632889e3_0xbe3888d86bfb97f996033bbd3b9e157b2e0c1908/content/conversions/bxiif4yb/videos/55IvyytS-33934865.mp4
https://videos-fms.jwpsrv.com/632889e3_0xf9bef12b22f3acbc36a793361afa9208f04e2a2c/content/conversions/bxiif4yb/videos/y0fBdg0a-33934865.mp4
https://videos-fms.jwpsrv.com/632889e4_0x21b2b8e78c6aa0538420efdb4e21685c7e273a3f/content/conversions/bxiif4yb/videos/4WDb95MW-33934865.mp4
https://videos-fms.jwpsrv.com/632889e4_0x28db1d0007271421118b3576466d049280f0de7f/content/conversions/bxiif4yb/videos/AwUXg4Vl-33934865.mp4
https://videos-fms.jwpsrv.com/632889e4_0xc3584b2456ee99ac29a4ee109da72bddbaff5261/content/conversions/bxiif4yb/videos/2aty2AcW-33934865.mp4
https://videos-fms.jwpsrv.com/632889e3_0x377c2f88a3284aef90bad5374ff660a923e3b680/content/conversions/bxiif4yb/videos/9HT2KL9N-33934865.mp4
https://videos-fms.jwpsrv.com/632889e1_0x70aea9d974cba5a9b4d3ab4b396961bc50c2a934/content/conversions/bxiif4yb/videos/An6F1xoU-33934865.mp4
https://videos-fms.jwpsrv.com/632889e4_0xef6a9e07569a21a0c7e34b6a52a45f6abafe5ed8/content/conversions/bxiif4yb/videos/ETZww6zX-33934865.mp4
https://videos-fms.jwpsrv.com/632889e4_0xcb2b4b7cfba3bedc45f589ac02c7b1ba4542d8cc/content/conversions/bxiif4yb/videos/DywKSMhr-33934865.mp4

youtube-dl -a ~/Documents/VisualStudioCode\ Repos/Gitlab/Website-MH-01/private/temproaryu.txt